<?xml version="1.0" ?>

<robot name="ernestin">

  <joint name="ernestin__link_4_JOINT_0" type="revolute">
    <parent link="ernestin__link_4"/>
    <child link="ernestin__link_5_clone"/>
    <origin rpy="0  1.5707  1.5707" xyz="0.57499 -0.62877  0.025"/>
    <axis xyz="0 0 1"/>
    <limit effort="-1.0" lower="-1.79769e+308" upper="1.79769e+308" velocity="-1.0"/>
  </joint>
  <joint name="ernestin__link_4_JOINT_1" type="revolute">
    <parent link="ernestin__link_4"/>
    <child link="ernestin__link_5"/>
    <origin rpy="0  1.5707  1.5707" xyz="0.57499  0.63627  0.025"/>
    <axis xyz="0 0 1"/>
    <limit effort="-1.0" lower="-1.79769e+308" upper="1.79769e+308" velocity="-1.0"/>
  </joint>
  <joint name="ernestin__link_4_JOINT_2" type="continuous">
    <parent link="ernestin__link_4"/>
    <child link="ernestin__link_6"/>
    <origin rpy="0  0  0" xyz="-1.02499 -0.00375 -0.175"/>
    <axis xyz="0  0  0"/>
    <limit effort="0" lower="0" upper="0" velocity="0"/>
  </joint>
  
  <link name="ernestin__link_4">
    <inertial>
      <mass value="1.03136"/>
      <origin rpy="0  0  0" xyz="0  0  0"/>
      <inertia ixx="0.107434" ixy="0" ixz="0" iyy="0.112909" iyz="0" izz="0.177369"/>
    </inertial>
    <collision name="ernestin__collision">
      <origin rpy="0  0  0" xyz="-0.125   -0.00375  0.125"/>
      <geometry>
        <box size="2 1 0.4"/>
      </geometry>
    </collision>
    <visual name="ernestin__visual">
      <origin rpy="0  0  0" xyz="-0.125   -0.00375  0.125"/>
      <geometry>
        <box size="2 1 0.4"/>
      </geometry>
    </visual>
  </link>
  <link name="ernestin__link_5">
    <inertial>
      <mass value="1"/>
      <origin rpy="0  0  0" xyz="0  0  0"/>
      <inertia ixx="0.145833" ixy="0" ixz="0" iyy="0.145833" iyz="0" izz="0.125"/>
    </inertial>
    <collision name="ernestin__collision">
      <origin rpy="-0.03  0    0" xyz="0  0  0"/>
      <geometry>
        <cylinder length="0.25" radius="0.3"/>
      </geometry>
    </collision>
    <visual name="ernestin__visual">
      <origin rpy="-0.03  0    0" xyz="0  0  0"/>
      <geometry>
        <cylinder length="0.25" radius="0.3"/>
      </geometry>
    </visual>
  </link>
  <link name="ernestin__link_5_clone">
    <inertial>
      <mass value="1"/>
      <origin rpy="0  0  0" xyz="0  0  0"/>
      <inertia ixx="0.145833" ixy="0" ixz="0" iyy="0.145833" iyz="0" izz="0.125"/>
    </inertial>
    <collision name="ernestin__collision">
      <origin rpy="0  0  0" xyz="0  0  0"/>
      <geometry>
        <cylinder length="0.25" radius="0.3"/>
      </geometry>
    </collision>
    <visual name="ernestin__visual">
      <origin rpy="0  0  0" xyz="0  0  0"/>
      <geometry>
        <cylinder length="0.25" radius="0.3"/>
      </geometry>
    </visual>
  </link>
  <link name="ernestin__link_6">
    <inertial>
      <mass value="1"/>
      <origin rpy="0  0  0" xyz="0  0  0"/>
      <inertia ixx="0.1" ixy="0" ixz="0" iyy="0.1" iyz="0" izz="0.1"/>
    </inertial>
    <collision name="ernestin__collision">
      <origin rpy="0  0  0" xyz="0  0  0"/>
      <geometry>
        <sphere radius="0.1"/>
      </geometry>
    </collision>
    <visual name="ernestin__visual">
      <origin rpy="0  0  0" xyz="0  0  0"/>
      <geometry>
        <sphere radius="0.1"/>
      </geometry>
    </visual>
  </link>

	<gazebo>
	  <plugin name="differential_drive_controller" filename="libgazebo_ros_diff_drive.so">
	    <alwaysOn>true</alwaysOn>
	    <updateRate>${update_rate}</updateRate>
	    <leftJoint>ernestin__link_4_JOINT_1</leftJoint>
	    <rightJoint>ernestin__link_4_JOINT_0</rightJoint>
	    <wheelSeparation>0.5380</wheelSeparation>
	    <wheelDiameter>0.2410</wheelDiameter>
	    <torque>20</torque>
	    <commandTopic>cmd_vel</commandTopic>
	    <odometryTopic>odom</odometryTopic>
	    <odometryFrame>odom</odometryFrame>
	    <robotBaseFrame>base_footprint</robotBaseFrame>
	  </plugin>
	</gazebo>

</robot>
